…
The top panel shows the distribution of raw expression values after they have been mapped to the inter-quantile range (black), the fit of the positive-expression Gaussian (red) and the matching fit of the negative-expression Gaussian (blue). The bottom panel is the matching posterior probability of the marker being expressed, given the original (unmapped) value.

Lastly, it may be desirable to reshape the data frame to the original cell-by-marker format. This can be done by using `GMMreshape()`:

``` r
exprPostProb <- GMMreshape( Fits )
# # A tibble: 10,000 x 15
#    CellId Cell_25546ONCAT… Cell_25546ONCD3 Cell_25546ONCD4 Cell_25546ONCD45
#     <dbl>            <dbl>           <dbl>           <dbl>            <dbl>
#  1    173           0.997           0.0696           0.935            0.110
#  2    235           0.0251          0.307            0.935            0.166
#  3    345           0.0235          0.0698           0.935            0.110
#  4    350           1               0.0750           0.935            0.110
#  5    378           1               0.0880           0.935            0.137
#  6    392           0.0257          0.0696           0.823            0.110
#  7    400           0.0191          0.0858           0.922            0.112
#  8    457           1               0.334            0.935            0.246
#  9    582           0.973           0.806            0.935            0.992
# 10    671           1               0.442            0.935            0.199
# # … with 9,990 more rows, and 10 more variables: Cell_25546ONCD45RO <dbl>,
# #   Cell_25546ONCD8 <dbl>, Cell_25546ONECAD <dbl>, Cell_25546ONFOXP3 <dbl>,
# #   Cell_25546ONKERATIN <dbl>, Cell_25546ONMITF <dbl>, Cell_25546ONPD1 <dbl>,
# #   Cell_25546ONS100 <dbl>, Cell_25546ONSMA <dbl>, Cell_25546ONVIMENTIN <dbl>
```

## Inferring cell type / state

The posterior probabilities of marker expression can now be combined in a Naive Bayes fashion to produce the final cell type/state calls. First, we define the classification task of interest. For example, we might be interested in distinguishing immune, tumor and stromal cells:

``` r
task <- c("Immune", "Tumor", "Stroma")
```

The channel expression probabilities can now be passed to `taskPostProb()` along with a channel -> class mapping and the name of a column that contains cell IDs:

``` r
Res <- taskPostProb( exprPostProb, CellId, M, task )
# # A tibble: 10,000 x 5
#    CellId Immune  Stroma Tumor Call  
#     <dbl>  <dbl>   <dbl> <dbl> <chr> 
#  1    173  -31.9  -16.1  -17.4 Stroma
#  2    235  -24.7  -10.9  -18.0 Stroma
#  3    345  -28.6  -10.4  -25.6 Stroma
#  4    350 -Inf   -Inf    -23.4 Tumor 
#  5    378 -Inf   -Inf    -22.9 Tumor 
# # … with 9,995 more rows
```

The final output contains log of posterior probability for each class in the classification task, as well as the final argmax call for each cell. Note that no call is made, when all posterior probabilities are zero:

``` r
filter( Res, is.na(Call) )
# # A tibble: 120 x 5
#    CellId Immune Stroma Tumor Call 
#     <dbl>  <dbl>  <dbl> <dbl> <chr>
#  1  30109   -Inf   -Inf  -Inf NA   
#  2  31651   -Inf   -Inf  -Inf NA   
#  3  35768   -Inf   -Inf  -Inf NA   
#  4  36805   -Inf   -Inf  -Inf NA   
#  5  36954   -Inf   -Inf  -Inf NA   
# # … with 115 more rows
```
